<?xml version="1.0" encoding="UTF-8"?>
<svg width="54px" height="52px" viewBox="0 0 54 52" version="1.1" xmlns="http://www.w3.org/2000/svg" xmlns:xlink="http://www.w3.org/1999/xlink">
    <title>top</title>
    <defs>
        <filter id="filter-1">
            <feColorMatrix in="SourceGraphic" type="matrix" values="0 0 0 0 1.000000 0 0 0 0 1.000000 0 0 0 0 1.000000 0 0 0 1.000000 0"></feColorMatrix>
        </filter>
        <polygon id="path-2" points="21.5825545 12 33.5825545 12 33.5825545 33 21.5825545 33"></polygon>
    </defs>
    <g id="Page-1" stroke="none" stroke-width="1" fill="none" fill-rule="evenodd">
        <g id="specs-1" transform="translate(-1242.000000, -4013.000000)">
            <g id="footer" transform="translate(19.000000, 3555.000000)">
                <g id="top" transform="translate(1223.417445, 458.000000)">
                    <rect id="Rectangle" fill="#333333" opacity="0.748978016" x="0.582554517" y="0" width="52" height="52" rx="5"></rect>
                    <path d="M33.1613297,21.3946651 C32.6300871,20.8687817 31.7680515,20.8684452 31.2364685,21.3936557 C31.2361282,21.3939921 31.2357879,21.3943286 31.2351073,21.3946651 L21.9817524,30.5362211 C21.4498291,31.0614316 21.4494888,31.913679 21.9807314,32.4395624 C21.9810717,32.4398989 21.9814121,32.4402354 21.9817524,32.4405718 L31.2351073,41.5821279 C31.7534176,42.1204602 32.6154532,42.1413206 33.1596281,41.629232 C33.7044836,41.1164704 33.7255836,40.2648959 33.2072732,39.7262271 C33.1912781,39.7097407 33.1749426,39.6935907 33.1579265,39.6777772 L24.8676828,31.4883965 L33.1579265,23.2990157 C33.6908707,22.7748146 33.6929127,21.9225672 33.162691,21.3956744 C33.1620104,21.395338 33.16167,21.3950015 33.1613297,21.3946651" id="Fill-1" fill="#D7D2CB" transform="translate(27.582555, 31.500000) scale(-1, 1) rotate(-270.000000) translate(-27.582555, -31.500000) "></path>
                    <g filter="url(#filter-1)" id="Group-3" opacity="0.516011083">
                        <g transform="translate(27.582555, 22.500000) scale(-1, 1) rotate(-270.000000) translate(-27.582555, -22.500000) translate(21.582555, 12.000000)"></g>
                    </g>
                    <mask id="mask-3" fill="white">
                        <use xlink:href="#path-2"></use>
                    </mask>
                    <g id="Clip-2" transform="translate(27.582555, 22.500000) scale(-1, 1) rotate(-270.000000) translate(-27.582555, -22.500000) "></g>
                    <path d="M33.1613297,12.3946651 C32.6300871,11.8687817 31.7680515,11.8684452 31.2364685,12.3936557 C31.2361282,12.3939921 31.2357879,12.3943286 31.2351073,12.3946651 L21.9817524,21.5362211 C21.4498291,22.0614316 21.4494888,22.913679 21.9807314,23.4395624 C21.9810717,23.4398989 21.9814121,23.4402354 21.9817524,23.4405718 L31.2351073,32.5821279 C31.7534176,33.1204602 32.6154532,33.1413206 33.1596281,32.629232 C33.7044836,32.1164704 33.7255836,31.2648959 33.2072732,30.7262271 C33.1912781,30.7097407 33.1749426,30.6935907 33.1579265,30.6777772 L24.8676828,22.4883965 L33.1579265,14.2990157 C33.6908707,13.7748146 33.6929127,12.9225672 33.162691,12.3956744 C33.1620104,12.395338 33.16167,12.3950015 33.1613297,12.3946651" id="Fill-1" fill="#D7D2CB" mask="url(#mask-3)" transform="translate(27.582555, 22.500000) scale(-1, 1) rotate(-270.000000) translate(-27.582555, -22.500000) "></path>
                </g>
            </g>
        </g>
    </g>
</svg>